…
Many gaps appear to start at midnight, and so may reflect at aQA/QC
practices.

``` r
thespots <- which(the_data$datetime_est - lag(the_data$datetime_est) > 60*61)
before <- thespots - 1

allspots <- c(thespots, before)
allspots <- sort(allspots)
the_data[allspots,]
#> # A tibble: 54 x 19
#>    count dt         datetime_est        datetime             year month   day
#>    <dbl> <date>     <dttm>              <dttm>              <dbl> <dbl> <dbl>
#>  1   828 2016-08-23 2016-08-23 23:00:00 2016-08-23 23:00:00  2016     8    23
#>  2   829 2016-08-24 2016-08-24 13:00:00 2016-08-24 13:00:00  2016     8    24
#>  3   852 2016-08-24 2016-08-24 12:00:00 2016-08-24 12:00:00  2016     8    24
#>  4   853 2016-08-25 2016-08-25 00:00:00 2016-08-25 00:00:00  2016     8    25
#>  5  4405 2017-01-19 2017-01-19 23:00:00 2017-01-19 23:00:00  2017     1    19
#>  6  4406 2017-01-20 2017-01-20 13:00:00 2017-01-20 13:00:00  2017     1    20
#>  7  4419 2017-01-20 2017-01-20 12:00:00 2017-01-20 12:00:00  2017     1    20
#>  8  4420 2017-01-20 2017-01-20 14:00:00 2017-01-20 14:00:00  2017     1    20
#>  9  5631 2017-03-12 2017-03-12 01:00:00 2017-03-12 01:00:00  2017     3    12
#> 10  5632 2017-03-12 2017-03-12 03:00:00 2017-03-12 03:00:00  2017     3    12
#> # ... with 44 more rows, and 12 more variables: hour <dbl>, depth <dbl>,
#> #   temperature <dbl>, salinity <dbl>, do <dbl>, pctsat <dbl>, ph <dbl>,
#> #   chl <dbl>, pco2 <dbl>, ta <dbl>, dic <dbl>, omega_a <dbl>
```
…
  localmaxdepth <- tmp$depth[localmax]
  localmaxdepth <- localmaxdepth[!is.na(localmaxdepth)]
  #Return columns
  return(tibble(dt = localmaxdatetime,depth = localmaxdepth))
}
```

``` r
tmp2 <- the_data %>% filter(year == 2017, month == 6)

findhightides(tmp2$depth, tmp2$datetime)
#> # A tibble: 55 x 2
#>    dt                  depth
#>    <dttm>              <dbl>
#>  1 2017-06-01 18:00:00  4.34
#>  2 2017-06-02 06:00:00  4.3 
#>  3 2017-06-02 19:00:00  4.25
#>  4 2017-06-03 07:00:00  4.18
#>  5 2017-06-03 20:00:00  4.24
#>  6 2017-06-04 08:00:00  4.12
#>  7 2017-06-04 21:00:00  4.29
#>  8 2017-06-05 09:00:00  4.14
#>  9 2017-06-05 21:00:00  4.34
#> 10 2017-06-06 10:00:00  4.23
#> # ... with 45 more rows
```
…
