…
``` r
ann_means <- trend_data %>%
  select(station, dt, year, yearf, month, salinity) %>%
  group_by(year) %>%
  summarize(across(.cols = salinity, 
                   .fns = c(mean = mean, median = median, p90 = quantile), 
                   na.rm = TRUE,
                   probs = .9,
                   .names = "sal_{.fn}"),
            .groups = 'drop') %>%
  mutate(midyear = ISOdate(year, 6, 15))

ann_means
#> # A tibble: 28 x 5
#>     year sal_mean sal_median sal_p90 midyear            
#>    <dbl>    <dbl>      <dbl>   <dbl> <dttm>             
#>  1  1993     28.6       30.0    31.8 1993-06-15 12:00:00
#>  2  1994     27.9       29.9    32.2 1994-06-15 12:00:00
#>  3  1995     26.8       30      31.7 1995-06-15 12:00:00
#>  4  1996     25.4       28.2    30.8 1996-06-15 12:00:00
#>  5  1997     26.8       29.6    31.5 1997-06-15 12:00:00
#>  6  1998     22.6       26.9    30.8 1998-06-15 12:00:00
#>  7  1999     26.5       29.6    31.9 1999-06-15 12:00:00
#>  8  2000     26.6       28.9    31.3 2000-06-15 12:00:00
#>  9  2001     27.5       29.9    31.3 2001-06-15 12:00:00
#> 10  2002     28.3       29.9    31.7 2002-06-15 12:00:00
#> # ... with 18 more rows
```
…
SO that makes it clear what is going on. Secchi depths are declining
most of the time in all three regions, The change is small and probably
not statistically robust in the spring. Generally, the decline in water
clarity is stronger in each region as you get later in the year. The
strongest declines have been offshore.

But what I really want are the predictions, so I can make a graphic out
of these ideas.

``` r
(emms <- as_tibble(emmeans(lm_s3, 
                           ~ season_3 + mod_region + year, 
                           cov.keep = 'year')) %>%
  mutate(midyear = ISOdate(year, 6, 15)))
#> # A tibble: 252 x 9
#>    season_3 mod_region  year emmean     SE    df lower.CL upper.CL
#>    <fct>    <fct>      <dbl>  <dbl>  <dbl> <dbl>    <dbl>    <dbl>
#>  1 Spring   Embayments  1993   1.53 0.0548  5164     1.42     1.63
#>  2 Summer   Embayments  1993   1.41 0.0426  5164     1.32     1.49
#>  3 Fall     Embayments  1993   1.63 0.0510  5164     1.53     1.73
#>  4 Spring   Inner Bay   1993   2.65 0.0534  5164     2.55     2.76
#>  5 Summer   Inner Bay   1993   2.53 0.0419  5164     2.45     2.61
#>  6 Fall     Inner Bay   1993   2.75 0.0495  5164     2.66     2.85
#>  7 Spring   Outer Bay   1993   3.31 0.0656  5164     3.18     3.44
#>  8 Summer   Outer Bay   1993   3.19 0.0557  5164     3.08     3.30
#>  9 Fall     Outer Bay   1993   3.41 0.0614  5164     3.29     3.53
#> 10 Spring   Embayments  1994   1.53 0.0518  5164     1.43     1.63
#> # ... with 242 more rows, and 1 more variable: midyear <dttm>
```
…
